INFO:sim:172 - Generating IP...
Resolving generics for 'cati_dataout_fifo'...
Applying external generics to 'cati_dataout_fifo'...
Delivering associated files for 'cati_dataout_fifo'...
Delivering EJava files for 'cati_dataout_fifo'...
Generating implementation netlist for 'cati_dataout_fifo'...
INFO:sim - Pre-processing HDL files for 'cati_dataout_fifo'...
WARNING:sim - BlackBox generator run option '-ifmt' found multiple times. Only
   the first occurence is considered.
Running synthesis for 'cati_dataout_fifo'
Running ngcbuild...
Writing VHO instantiation template for 'cati_dataout_fifo'...
Writing VHDL behavioral simulation model for 'cati_dataout_fifo'...
WARNING:sim - Overwriting existing file
   /home/csantos/Projects/apc/juno/CatiROC-test-firmware/ise14.7-project/cores/t
   mp/_cg/cati_dataout_fifo/doc/fifo_generator_v9_3_vinfo.html with file from
   view xilinx_documentation
Delivered 3 files into directory
/home/csantos/Projects/apc/juno/CatiROC-test-firmware/ise14.7-project/cores/tmp/
_cg/cati_dataout_fifo
Delivered 1 file into directory
/home/csantos/Projects/apc/juno/CatiROC-test-firmware/ise14.7-project/cores/tmp/
_cg/cati_dataout_fifo
Generating ASY schematic symbol...
INFO:sim:949 - Finished generation of ASY schematic symbol.
Generating SYM schematic symbol for 'cati_dataout_fifo'...
Generating metadata file...
Generating ISE project file for 'cati_dataout_fifo'...
Generating ISE project...
XCO file found: cati_dataout_fifo.xco
XMDF file found: cati_dataout_fifo_xmdf.tcl
Adding
/home/csantos/Projects/apc/juno/CatiROC-test-firmware/ise14.7-project/cores/tmp/
_cg/cati_dataout_fifo.asy -view all -origin_type imported
Adding
/home/csantos/Projects/apc/juno/CatiROC-test-firmware/ise14.7-project/cores/tmp/
_cg/cati_dataout_fifo.ngc -view all -origin_type created
Checking file
"/home/csantos/Projects/apc/juno/CatiROC-test-firmware/ise14.7-project/cores/tmp
/_cg/cati_dataout_fifo.ngc" for project device match ...
File
"/home/csantos/Projects/apc/juno/CatiROC-test-firmware/ise14.7-project/cores/tmp
/_cg/cati_dataout_fifo.ngc" device information matches project device.
Adding
/home/csantos/Projects/apc/juno/CatiROC-test-firmware/ise14.7-project/cores/tmp/
_cg/cati_dataout_fifo.sym -view all -origin_type imported
Adding
/home/csantos/Projects/apc/juno/CatiROC-test-firmware/ise14.7-project/cores/tmp/
_cg/cati_dataout_fifo.vhd -view all -origin_type created
INFO:HDLCompiler:1061 - Parsing VHDL file
   "/home/csantos/Projects/apc/juno/CatiROC-test-firmware/ise14.7-project/cores/
   tmp/_cg/cati_dataout_fifo.vhd" into library work
INFO:ProjectMgmt - Parsing design hierarchy completed successfully.
Adding
/home/csantos/Projects/apc/juno/CatiROC-test-firmware/ise14.7-project/cores/tmp/
_cg/cati_dataout_fifo.vho -view all -origin_type imported
INFO:TclTasksC:2116 - The automatic calculation of top has been turned-off.
   Please set the new top explicitly by running the "project set top" command.
   To re-calculate the new top automatically, set the "Auto Implementation Top"
   property to true.
Top level has been set to "/cati_dataout_fifo"
Generating README file...
Generating FLIST file...
INFO:sim:948 - Finished FLIST file generation.
Launching README viewer...
Moving files to output directory...
Finished moving files to output directory
Wrote CGP file for project 'cati_dataout_fifo'.
